Open trades
TIME,SYMBOL,SIDE,PRICE,QUANTITY
1,ARS,B,100.0,12.0,
1,ARS,B,100.0,12.0,

Close trades
OPEN_TIME,CLOSE_TIME,SYMBOL,QUANTITY,PNL,OPEN_SIDE,CLOSE_SIDE,OPEN_PRICE,CLOSE_PRICE

Open trades
TIME,SYMBOL,SIDE,PRICE,QUANTITY
1,ARS,B,100.0,12.0,
1,ARS,B,100.0,12.0,
2,ARS,B,99.0,17.0,

Close trades
OPEN_TIME,CLOSE_TIME,SYMBOL,QUANTITY,PNL,OPEN_SIDE,CLOSE_SIDE,OPEN_PRICE,CLOSE_PRICE

Open trades
TIME,SYMBOL,SIDE,PRICE,QUANTITY
1,ARS,B,100.0,12.0,
1,ARS,B,100.0,12.0,
2,ARS,B,99.0,17.0,
3,ARS,B,103.0,3.0,

Close trades
OPEN_TIME,CLOSE_TIME,SYMBOL,QUANTITY,PNL,OPEN_SIDE,CLOSE_SIDE,OPEN_PRICE,CLOSE_PRICE

Open trades
TIME,SYMBOL,SIDE,PRICE,QUANTITY
1,ARS,B,100.0,3.0,
1,ARS,B,100.0,12.0,
2,ARS,B,99.0,17.0,
3,ARS,B,103.0,3.0,

Close trades
OPEN_TIME,CLOSE_TIME,SYMBOL,QUANTITY,PNL,OPEN_SIDE,CLOSE_SIDE,OPEN_PRICE,CLOSE_PRICE
1,4,ARS,9.0,9.0,B,S,100.0,101.0,

Open trades
TIME,SYMBOL,SIDE,PRICE,QUANTITY
1,ARS,B,100.0,11.0,
2,ARS,B,99.0,16.0,
3,ARS,B,103.0,2.0,
5,ARS,S,105.0,1.0,

Close trades
OPEN_TIME,CLOSE_TIME,SYMBOL,QUANTITY,PNL,OPEN_SIDE,CLOSE_SIDE,OPEN_PRICE,CLOSE_PRICE
1,4,ARS,9.0,9.0,B,S,100.0,101.0,
1,5,ARS,3.0,15.0,B,S,100.0,105.0,
1,5,ARS,1.0,5.0,B,S,100.0,105.0,
2,5,ARS,1.0,6.0,B,S,99.0,105.0,
3,5,ARS,1.0,2.0,B,S,103.0,105.0,

OPEN_TIME,CLOSE_TIME,SYMBOL,QUANTITY,PNL,OPEN_SIDE,CLOSE_SIDE,OPEN_PRICE,CLOSE_PRICE
1,4,ARS,9.0,9.0,B,S,100.0,101.0,
1,5,ARS,3.0,15.0,B,S,100.0,105.0,
1,5,ARS,1.0,5.0,B,S,100.0,105.0,
2,5,ARS,1.0,6.0,B,S,99.0,105.0,
3,5,ARS,1.0,2.0,B,S,103.0,105.0,
37.0
